^C:\USERS\YAIR\DESKTOP\MAGSHIMIM\C++\PYTHONINTERPRETER\EX-1\BOOLEAN.CPP
/c /I"C:\USERS\YAIR\DESKTOP\MAGSHIMIM\C++\TRIVIANIGHT\VCPKG\SCRIPTS\BUILDSYSTEMS\MSBUILD\..\..\..\INSTALLED\X64-WINDOWS\INCLUDE" /ZI /JMC /nologo /W3 /WX- /diagnostics:column /sdl /Od /D _DEBUG /D _CONSOLE /D _UNICODE /D UNICODE /Gm- /EHsc /RTC1 /MDd /GS /fp:precise /permissive- /Zc:wchar_t /Zc:forScope /Zc:inline /Fo"X64\DEBUG\\" /Fd"X64\DEBUG\VC142.PDB" /external:W3 /Gd /TP /FC C:\USERS\YAIR\DESKTOP\MAGSHIMIM\C++\PYTHONINTERPRETER\EX-1\BOOLEAN.CPP
^C:\USERS\YAIR\DESKTOP\MAGSHIMIM\C++\PYTHONINTERPRETER\EX-1\HELPER.CPP
/c /I"C:\USERS\YAIR\DESKTOP\MAGSHIMIM\C++\TRIVIANIGHT\VCPKG\SCRIPTS\BUILDSYSTEMS\MSBUILD\..\..\..\INSTALLED\X64-WINDOWS\INCLUDE" /ZI /JMC /nologo /W3 /WX- /diagnostics:column /sdl /Od /D _DEBUG /D _CONSOLE /D _UNICODE /D UNICODE /Gm- /EHsc /RTC1 /MDd /GS /fp:precise /permissive- /Zc:wchar_t /Zc:forScope /Zc:inline /Fo"X64\DEBUG\\" /Fd"X64\DEBUG\VC142.PDB" /external:W3 /Gd /TP /FC C:\USERS\YAIR\DESKTOP\MAGSHIMIM\C++\PYTHONINTERPRETER\EX-1\HELPER.CPP
^C:\USERS\YAIR\DESKTOP\MAGSHIMIM\C++\PYTHONINTERPRETER\EX-1\INDENTATIONEXCEPTION.CPP
/c /I"C:\USERS\YAIR\DESKTOP\MAGSHIMIM\C++\TRIVIANIGHT\VCPKG\SCRIPTS\BUILDSYSTEMS\MSBUILD\..\..\..\INSTALLED\X64-WINDOWS\INCLUDE" /ZI /JMC /nologo /W3 /WX- /diagnostics:column /sdl /Od /D _DEBUG /D _CONSOLE /D _UNICODE /D UNICODE /Gm- /EHsc /RTC1 /MDd /GS /fp:precise /permissive- /Zc:wchar_t /Zc:forScope /Zc:inline /Fo"X64\DEBUG\\" /Fd"X64\DEBUG\VC142.PDB" /external:W3 /Gd /TP /FC C:\USERS\YAIR\DESKTOP\MAGSHIMIM\C++\PYTHONINTERPRETER\EX-1\INDENTATIONEXCEPTION.CPP
^C:\USERS\YAIR\DESKTOP\MAGSHIMIM\C++\PYTHONINTERPRETER\EX-1\INTEGER.CPP
/c /I"C:\USERS\YAIR\DESKTOP\MAGSHIMIM\C++\TRIVIANIGHT\VCPKG\SCRIPTS\BUILDSYSTEMS\MSBUILD\..\..\..\INSTALLED\X64-WINDOWS\INCLUDE" /ZI /JMC /nologo /W3 /WX- /diagnostics:column /sdl /Od /D _DEBUG /D _CONSOLE /D _UNICODE /D UNICODE /Gm- /EHsc /RTC1 /MDd /GS /fp:precise /permissive- /Zc:wchar_t /Zc:forScope /Zc:inline /Fo"X64\DEBUG\\" /Fd"X64\DEBUG\VC142.PDB" /external:W3 /Gd /TP /FC C:\USERS\YAIR\DESKTOP\MAGSHIMIM\C++\PYTHONINTERPRETER\EX-1\INTEGER.CPP
^C:\USERS\YAIR\DESKTOP\MAGSHIMIM\C++\PYTHONINTERPRETER\EX-1\INTERPRETER.CPP
/c /I"C:\USERS\YAIR\DESKTOP\MAGSHIMIM\C++\TRIVIANIGHT\VCPKG\SCRIPTS\BUILDSYSTEMS\MSBUILD\..\..\..\INSTALLED\X64-WINDOWS\INCLUDE" /ZI /JMC /nologo /W3 /WX- /diagnostics:column /sdl /Od /D _DEBUG /D _CONSOLE /D _UNICODE /D UNICODE /Gm- /EHsc /RTC1 /MDd /GS /fp:precise /permissive- /Zc:wchar_t /Zc:forScope /Zc:inline /Fo"X64\DEBUG\\" /Fd"X64\DEBUG\VC142.PDB" /external:W3 /Gd /TP /FC C:\USERS\YAIR\DESKTOP\MAGSHIMIM\C++\PYTHONINTERPRETER\EX-1\INTERPRETER.CPP
^C:\USERS\YAIR\DESKTOP\MAGSHIMIM\C++\PYTHONINTERPRETER\EX-1\LIST.CPP
/c /I"C:\USERS\YAIR\DESKTOP\MAGSHIMIM\C++\TRIVIANIGHT\VCPKG\SCRIPTS\BUILDSYSTEMS\MSBUILD\..\..\..\INSTALLED\X64-WINDOWS\INCLUDE" /ZI /JMC /nologo /W3 /WX- /diagnostics:column /sdl /Od /D _DEBUG /D _CONSOLE /D _UNICODE /D UNICODE /Gm- /EHsc /RTC1 /MDd /GS /fp:precise /permissive- /Zc:wchar_t /Zc:forScope /Zc:inline /Fo"X64\DEBUG\\" /Fd"X64\DEBUG\VC142.PDB" /external:W3 /Gd /TP /FC C:\USERS\YAIR\DESKTOP\MAGSHIMIM\C++\PYTHONINTERPRETER\EX-1\LIST.CPP
^C:\USERS\YAIR\DESKTOP\MAGSHIMIM\C++\PYTHONINTERPRETER\EX-1\NAMEERROREXCEPTION.CPP
/c /I"C:\USERS\YAIR\DESKTOP\MAGSHIMIM\C++\TRIVIANIGHT\VCPKG\SCRIPTS\BUILDSYSTEMS\MSBUILD\..\..\..\INSTALLED\X64-WINDOWS\INCLUDE" /ZI /JMC /nologo /W3 /WX- /diagnostics:column /sdl /Od /D _DEBUG /D _CONSOLE /D _UNICODE /D UNICODE /Gm- /EHsc /RTC1 /MDd /GS /fp:precise /permissive- /Zc:wchar_t /Zc:forScope /Zc:inline /Fo"X64\DEBUG\\" /Fd"X64\DEBUG\VC142.PDB" /external:W3 /Gd /TP /FC C:\USERS\YAIR\DESKTOP\MAGSHIMIM\C++\PYTHONINTERPRETER\EX-1\NAMEERROREXCEPTION.CPP
^C:\USERS\YAIR\DESKTOP\MAGSHIMIM\C++\PYTHONINTERPRETER\EX-1\PARSER.CPP
/c /I"C:\USERS\YAIR\DESKTOP\MAGSHIMIM\C++\TRIVIANIGHT\VCPKG\SCRIPTS\BUILDSYSTEMS\MSBUILD\..\..\..\INSTALLED\X64-WINDOWS\INCLUDE" /ZI /JMC /nologo /W3 /WX- /diagnostics:column /sdl /Od /D _DEBUG /D _CONSOLE /D _UNICODE /D UNICODE /Gm- /EHsc /RTC1 /MDd /GS /fp:precise /permissive- /Zc:wchar_t /Zc:forScope /Zc:inline /Fo"X64\DEBUG\\" /Fd"X64\DEBUG\VC142.PDB" /external:W3 /Gd /TP /FC C:\USERS\YAIR\DESKTOP\MAGSHIMIM\C++\PYTHONINTERPRETER\EX-1\PARSER.CPP
^C:\USERS\YAIR\DESKTOP\MAGSHIMIM\C++\PYTHONINTERPRETER\EX-1\SEQUENCE.CPP
/c /I"C:\USERS\YAIR\DESKTOP\MAGSHIMIM\C++\TRIVIANIGHT\VCPKG\SCRIPTS\BUILDSYSTEMS\MSBUILD\..\..\..\INSTALLED\X64-WINDOWS\INCLUDE" /ZI /JMC /nologo /W3 /WX- /diagnostics:column /sdl /Od /D _DEBUG /D _CONSOLE /D _UNICODE /D UNICODE /Gm- /EHsc /RTC1 /MDd /GS /fp:precise /permissive- /Zc:wchar_t /Zc:forScope /Zc:inline /Fo"X64\DEBUG\\" /Fd"X64\DEBUG\VC142.PDB" /external:W3 /Gd /TP /FC C:\USERS\YAIR\DESKTOP\MAGSHIMIM\C++\PYTHONINTERPRETER\EX-1\SEQUENCE.CPP
^C:\USERS\YAIR\DESKTOP\MAGSHIMIM\C++\PYTHONINTERPRETER\EX-1\STRING.CPP
/c /I"C:\USERS\YAIR\DESKTOP\MAGSHIMIM\C++\TRIVIANIGHT\VCPKG\SCRIPTS\BUILDSYSTEMS\MSBUILD\..\..\..\INSTALLED\X64-WINDOWS\INCLUDE" /ZI /JMC /nologo /W3 /WX- /diagnostics:column /sdl /Od /D _DEBUG /D _CONSOLE /D _UNICODE /D UNICODE /Gm- /EHsc /RTC1 /MDd /GS /fp:precise /permissive- /Zc:wchar_t /Zc:forScope /Zc:inline /Fo"X64\DEBUG\\" /Fd"X64\DEBUG\VC142.PDB" /external:W3 /Gd /TP /FC C:\USERS\YAIR\DESKTOP\MAGSHIMIM\C++\PYTHONINTERPRETER\EX-1\STRING.CPP
^C:\USERS\YAIR\DESKTOP\MAGSHIMIM\C++\PYTHONINTERPRETER\EX-1\SYNTAXEXCEPTION.CPP
/c /I"C:\USERS\YAIR\DESKTOP\MAGSHIMIM\C++\TRIVIANIGHT\VCPKG\SCRIPTS\BUILDSYSTEMS\MSBUILD\..\..\..\INSTALLED\X64-WINDOWS\INCLUDE" /ZI /JMC /nologo /W3 /WX- /diagnostics:column /sdl /Od /D _DEBUG /D _CONSOLE /D _UNICODE /D UNICODE /Gm- /EHsc /RTC1 /MDd /GS /fp:precise /permissive- /Zc:wchar_t /Zc:forScope /Zc:inline /Fo"X64\DEBUG\\" /Fd"X64\DEBUG\VC142.PDB" /external:W3 /Gd /TP /FC C:\USERS\YAIR\DESKTOP\MAGSHIMIM\C++\PYTHONINTERPRETER\EX-1\SYNTAXEXCEPTION.CPP
^C:\USERS\YAIR\DESKTOP\MAGSHIMIM\C++\PYTHONINTERPRETER\EX-1\TEXT.CPP
/c /I"C:\USERS\YAIR\DESKTOP\MAGSHIMIM\C++\TRIVIANIGHT\VCPKG\SCRIPTS\BUILDSYSTEMS\MSBUILD\..\..\..\INSTALLED\X64-WINDOWS\INCLUDE" /ZI /JMC /nologo /W3 /WX- /diagnostics:column /sdl /Od /D _DEBUG /D _CONSOLE /D _UNICODE /D UNICODE /Gm- /EHsc /RTC1 /MDd /GS /fp:precise /permissive- /Zc:wchar_t /Zc:forScope /Zc:inline /Fo"X64\DEBUG\\" /Fd"X64\DEBUG\VC142.PDB" /external:W3 /Gd /TP /FC C:\USERS\YAIR\DESKTOP\MAGSHIMIM\C++\PYTHONINTERPRETER\EX-1\TEXT.CPP
^C:\USERS\YAIR\DESKTOP\MAGSHIMIM\C++\PYTHONINTERPRETER\EX-1\TYPE.CPP
/c /I"C:\USERS\YAIR\DESKTOP\MAGSHIMIM\C++\TRIVIANIGHT\VCPKG\SCRIPTS\BUILDSYSTEMS\MSBUILD\..\..\..\INSTALLED\X64-WINDOWS\INCLUDE" /ZI /JMC /nologo /W3 /WX- /diagnostics:column /sdl /Od /D _DEBUG /D _CONSOLE /D _UNICODE /D UNICODE /Gm- /EHsc /RTC1 /MDd /GS /fp:precise /permissive- /Zc:wchar_t /Zc:forScope /Zc:inline /Fo"X64\DEBUG\\" /Fd"X64\DEBUG\VC142.PDB" /external:W3 /Gd /TP /FC C:\USERS\YAIR\DESKTOP\MAGSHIMIM\C++\PYTHONINTERPRETER\EX-1\TYPE.CPP
^C:\USERS\YAIR\DESKTOP\MAGSHIMIM\C++\PYTHONINTERPRETER\EX-1\VOID.CPP
/c /I"C:\USERS\YAIR\DESKTOP\MAGSHIMIM\C++\TRIVIANIGHT\VCPKG\SCRIPTS\BUILDSYSTEMS\MSBUILD\..\..\..\INSTALLED\X64-WINDOWS\INCLUDE" /ZI /JMC /nologo /W3 /WX- /diagnostics:column /sdl /Od /D _DEBUG /D _CONSOLE /D _UNICODE /D UNICODE /Gm- /EHsc /RTC1 /MDd /GS /fp:precise /permissive- /Zc:wchar_t /Zc:forScope /Zc:inline /Fo"X64\DEBUG\\" /Fd"X64\DEBUG\VC142.PDB" /external:W3 /Gd /TP /FC C:\USERS\YAIR\DESKTOP\MAGSHIMIM\C++\PYTHONINTERPRETER\EX-1\VOID.CPP
